%YAML 1.1
%TAG !u! tag:unity3d.com,2011:
--- !u!74 &7400000
AnimationClip:
  m_ObjectHideFlags: 0
  m_CorrespondingSourceObject: {fileID: 0}
  m_PrefabInstance: {fileID: 0}
  m_PrefabAsset: {fileID: 0}
  m_Name: PlayerIdle
  serializedVersion: 6
  m_Legacy: 0
  m_Compressed: 0
  m_UseHighQualityCurve: 1
  m_RotationCurves: []
  m_CompressedRotationCurves: []
  m_EulerCurves: []
  m_PositionCurves: []
  m_ScaleCurves: []
  m_FloatCurves: []
  m_PPtrCurves:
  - curve:
    - time: 0
      value: {fileID: -4187214548786421101, guid: e97d4c7e132dc994290155a8372e4846, type: 3}
    - time: 0.05
      value: {fileID: -4405409754816462150, guid: e97d4c7e132dc994290155a8372e4846, type: 3}
    - time: 0.1
      value: {fileID: 1325391597899921116, guid: e97d4c7e132dc994290155a8372e4846, type: 3}
    - time: 0.15
      value: {fileID: 6942167060360026053, guid: e97d4c7e132dc994290155a8372e4846, type: 3}
    - time: 0.2
      value: {fileID: 2560180200455757408, guid: e97d4c7e132dc994290155a8372e4846, type: 3}
    - time: 0.26666668
      value: {fileID: 1070625205398685716, guid: e97d4c7e132dc994290155a8372e4846, type: 3}
    - time: 0.31666666
      value: {fileID: -1719558627220990465, guid: e97d4c7e132dc994290155a8372e4846, type: 3}
    - time: 0.36666667
      value: {fileID: 3930199534078958250, guid: e97d4c7e132dc994290155a8372e4846, type: 3}
    - time: 0.41666666
      value: {fileID: 7758714102156177964, guid: e97d4c7e132dc994290155a8372e4846, type: 3}
    - time: 0.46666667
      value: {fileID: -3564884220219346619, guid: e97d4c7e132dc994290155a8372e4846, type: 3}
    attribute: m_Sprite
    path: 
    classID: 212
    script: {fileID: 0}
  m_SampleRate: 60
  m_WrapMode: 0
  m_Bounds:
    m_Center: {x: 0, y: 0, z: 0}
    m_Extent: {x: 0, y: 0, z: 0}
  m_ClipBindingConstant:
    genericBindings:
    - serializedVersion: 2
      path: 0
      attribute: 0
      script: {fileID: 0}
      typeID: 212
      customType: 23
      isPPtrCurve: 1
    pptrCurveMapping:
    - {fileID: -4187214548786421101, guid: e97d4c7e132dc994290155a8372e4846, type: 3}
    - {fileID: -4405409754816462150, guid: e97d4c7e132dc994290155a8372e4846, type: 3}
    - {fileID: 1325391597899921116, guid: e97d4c7e132dc994290155a8372e4846, type: 3}
    - {fileID: 6942167060360026053, guid: e97d4c7e132dc994290155a8372e4846, type: 3}
    - {fileID: 2560180200455757408, guid: e97d4c7e132dc994290155a8372e4846, type: 3}
    - {fileID: 1070625205398685716, guid: e97d4c7e132dc994290155a8372e4846, type: 3}
    - {fileID: -1719558627220990465, guid: e97d4c7e132dc994290155a8372e4846, type: 3}
    - {fileID: 3930199534078958250, guid: e97d4c7e132dc994290155a8372e4846, type: 3}
    - {fileID: 7758714102156177964, guid: e97d4c7e132dc994290155a8372e4846, type: 3}
    - {fileID: -3564884220219346619, guid: e97d4c7e132dc994290155a8372e4846, type: 3}
  m_AnimationClipSettings:
    serializedVersion: 2
    m_AdditiveReferencePoseClip: {fileID: 0}
    m_AdditiveReferencePoseTime: 0
    m_StartTime: 0
    m_StopTime: 0.48333335
    m_OrientationOffsetY: 0
    m_Level: 0
    m_CycleOffset: 0
    m_HasAdditiveReferencePose: 0
    m_LoopTime: 1
    m_LoopBlend: 0
    m_LoopBlendOrientation: 0
    m_LoopBlendPositionY: 0
    m_LoopBlendPositionXZ: 0
    m_KeepOriginalOrientation: 0
    m_KeepOriginalPositionY: 1
    m_KeepOriginalPositionXZ: 0
    m_HeightFromFeet: 0
    m_Mirror: 0
  m_EditorCurves: []
  m_EulerEditorCurves: []
  m_HasGenericRootTransform: 0
  m_HasMotionFloatCurves: 0
  m_Events: []
